{
  "connection": "default",
  "collectionName": "sites",
  "info": {
    "name": "Sites"
  },
  "options": {
    "increments": true,
    "timestamps": true
  },
  "attributes": {
    "header": {
      "type": "string"
    },
    "content": {
      "type": "richtext"
    },
    "content_image": {
      "collection": "file",
      "via": "related",
      "plugin": "upload",
      "required": false
    }
  }
}
